colincode/out.txt
VCD info: dumpfile waveform.vcd opened for output.
WARNING: tb_lab3.v:30: $readmemh(mem_in.hex): Not enough words in the file for the requested range [0:1024].
WARNING: tb_lab3.v:31: $readmemh(mem_in.hex): Not enough words in the file for the requested range [0:1024].
                   0 PC=00000000 pcsel=0 pc.target addr pc=00000000 pc+4=00000004 targetpc=00000004
 IR=07000093 halt=0 exit=0 IF_ID_Stall=0 
 ID
   RegA=00 RegA Val=00000000 RegB=00 RegB Val=00000000 Rdst=00 halt=0 regwr=1
   controlunit regwr=1
 EX
   Rdst=00 Rdst_Data=00000000 RegA_Data=00000000 RegB_DATA=00000000 ALU_OUT=00000000 halt=0 regwr=1 
   Branch Predictor pc=00000000 target addr=00000000 pc_sel=0 isnew=1 doBranch=0 funct3=0 opcode=00
 Forwarding
   RegA_ID_name=00 RegA_VAL_ID=00000000 RegB_ID_name=00 RegB_VAL_ID =00000000
    EX RDest=00 RDest_VAL=00000000 Reg_WR_EN=1 opcode=00
    MEM RDest=00 RDest_VAL=00000000 Reg_WR_EN=1 opcode=00 
 Forwarding out:
   regA=xxxxxxxx regB=xxxxxxxx
 MEM
   ALUresult_in=00000000 RegBData=00000000 M[00000000] val put in: 00000000 val gotten out: 93939393 memwr=1
   Rdst=00 rdst_val=00000000 halt=0 regwr=1 opcode=00
 WB
   regwr=1 

                  10 PC=00000004 pcsel=0 pc.target addr pc=00000000 pc+4=00000008 targetpc=00000008
 IR=00008113 halt=0 exit=0 IF_ID_Stall=0 
 ID
   RegA=00 RegA Val=00000000 RegB=10 RegB Val=00000000 Rdst=01 halt=0 regwr=0
   controlunit regwr=0
 EX
   Rdst=00 Rdst_Data=xxxxxxxx RegA_Data=xxxxxxxx RegB_DATA=xxxxxxxx ALU_OUT=xxxxxxxx halt=0 regwr=1 
   Branch Predictor pc=00000000 target addr=00000000 pc_sel=0 isnew=1 doBranch=0 funct3=0 opcode=00
 Forwarding
   RegA_ID_name=00 RegA_VAL_ID=00000000 RegB_ID_name=10 RegB_VAL_ID =00000000
    EX RDest=00 RDest_VAL=xxxxxxxx Reg_WR_EN=1 opcode=00
    MEM RDest=00 RDest_VAL=00000000 Reg_WR_EN=1 opcode=00 
 Forwarding out:
   regA=xxxxxxxx regB=xxxxxxxx
 MEM
   ALUresult_in=00000000 RegBData=00000000 M[00000000] val put in: 00000000 val gotten out: 93939393 memwr=1
   Rdst=00 rdst_val=00000000 halt=0 regwr=1 opcode=00
 WB
   regwr=1 

                  20 PC=00000008 pcsel=0 pc.target addr pc=00000070 pc+4=0000000c targetpc=0000000c
 IR=00000193 halt=0 exit=0 IF_ID_Stall=0 
 ID
   RegA=01 RegA Val=00000000 RegB=00 RegB Val=00000000 Rdst=02 halt=0 regwr=0
   controlunit regwr=0
 EX
   Rdst=01 Rdst_Data=xxxxxxxx RegA_Data=xxxxxxxx RegB_DATA=xxxxxxxx ALU_OUT=xxxxxxxx halt=0 regwr=0 
   Branch Predictor pc=00000000 target addr=00000070 pc_sel=0 isnew=0 doBranch=0 funct3=0 opcode=13
 Forwarding
   RegA_ID_name=01 RegA_VAL_ID=00000000 RegB_ID_name=00 RegB_VAL_ID =00000000
    EX RDest=01 RDest_VAL=xxxxxxxx Reg_WR_EN=0 opcode=13
    MEM RDest=00 RDest_VAL=xxxxxxxx Reg_WR_EN=1 opcode=00 
 Forwarding out:
   regA=xxxxxxxx regB=00000000
 MEM
   ALUresult_in=xxxxxxxx RegBData=xxxxxxxx M[xxxxxxxx] val put in: xxxxxxxx val gotten out: xxxxxxxx memwr=x
   Rdst=00 rdst_val=xxxxxxxx halt=0 regwr=1 opcode=00
 WB
   regwr=1 

                  30 PC=0000000c pcsel=0 pc.target addr pc=00000004 pc+4=00000010 targetpc=00000010
 IR=00312023 halt=0 exit=0 IF_ID_Stall=0 
 ID
   RegA=00 RegA Val=00000000 RegB=00 RegB Val=00000000 Rdst=03 halt=0 regwr=0
   controlunit regwr=0
 EX
   Rdst=02 Rdst_Data=xxxxxxxx RegA_Data=xxxxxxxx RegB_DATA=00000000 ALU_OUT=xxxxxxxx halt=0 regwr=0 
   Branch Predictor pc=00000004 target addr=00000004 pc_sel=0 isnew=0 doBranch=0 funct3=0 opcode=13
 Forwarding
   RegA_ID_name=00 RegA_VAL_ID=00000000 RegB_ID_name=00 RegB_VAL_ID =00000000
    EX RDest=02 RDest_VAL=xxxxxxxx Reg_WR_EN=0 opcode=13
    MEM RDest=01 RDest_VAL=xxxxxxxx Reg_WR_EN=0 opcode=13 
 Forwarding out:
   regA=00000000 regB=00000000
 MEM
   ALUresult_in=xxxxxxxx RegBData=xxxxxxxx M[xxxxxxxx] val put in: xxxxxxxx val gotten out: xxxxxxxx memwr=1
   Rdst=01 rdst_val=xxxxxxxx halt=0 regwr=0 opcode=13
 WB
   regwr=1 

                  40 PC=00000010 pcsel=0 pc.target addr pc=00000008 pc+4=00000014 targetpc=00000014
 IR=000001b3 halt=0 exit=0 IF_ID_Stall=0 
 ID
   RegA=02 RegA Val=00000000 RegB=03 RegB Val=00000000 Rdst=00 halt=0 regwr=1
   controlunit regwr=1
 EX
   Rdst=03 Rdst_Data=00000000 RegA_Data=00000000 RegB_DATA=00000000 ALU_OUT=00000000 halt=0 regwr=0 
   Branch Predictor pc=00000008 target addr=00000008 pc_sel=0 isnew=0 doBranch=0 funct3=0 opcode=13
 Forwarding
   RegA_ID_name=02 RegA_VAL_ID=00000000 RegB_ID_name=03 RegB_VAL_ID =00000000
    EX RDest=03 RDest_VAL=00000000 Reg_WR_EN=0 opcode=13
    MEM RDest=02 RDest_VAL=xxxxxxxx Reg_WR_EN=0 opcode=13 
 Forwarding out:
   regA=xxxxxxxx regB=00000000
 MEM
   ALUresult_in=xxxxxxxx RegBData=00000000 M[xxxxxxxx] val put in: 00000000 val gotten out: xxxxxxxx memwr=1
   Rdst=02 rdst_val=xxxxxxxx halt=0 regwr=0 opcode=13
 WB
   regwr=0 

                  50 PC=00000014 pcsel=0 pc.target addr pc=0000000c pc+4=00000018 targetpc=00000018
 IR=00808213 halt=0 exit=0 IF_ID_Stall=0 
 ID
   RegA=00 RegA Val=00000000 RegB=00 RegB Val=00000000 Rdst=03 halt=0 regwr=0
   controlunit regwr=0
 EX
   Rdst=00 Rdst_Data=xxxxxxxx RegA_Data=xxxxxxxx RegB_DATA=00000000 ALU_OUT=xxxxxxxx halt=0 regwr=1 
   Branch Predictor pc=0000000c target addr=0000000c pc_sel=0 isnew=0 doBranch=0 funct3=2 opcode=23
 Forwarding
   RegA_ID_name=00 RegA_VAL_ID=00000000 RegB_ID_name=00 RegB_VAL_ID =00000000
    EX RDest=00 RDest_VAL=xxxxxxxx Reg_WR_EN=1 opcode=23
    MEM RDest=03 RDest_VAL=00000000 Reg_WR_EN=0 opcode=13 
 Forwarding out:
   regA=00000000 regB=00000000
 MEM
   ALUresult_in=00000000 RegBData=00000000 M[00000000] val put in: 00000000 val gotten out: XXXXXX93 memwr=1
   Rdst=03 rdst_val=00000000 halt=0 regwr=0 opcode=13
 WB
   regwr=0 

                  60 PC=00000018 pcsel=0 pc.target addr pc=00000010 pc+4=0000001c targetpc=0000001c
 IR=00100293 halt=0 exit=0 IF_ID_Stall=0 
 ID
   RegA=01 RegA Val=xxxxxxxx RegB=08 RegB Val=00000000 Rdst=04 halt=0 regwr=0
   controlunit regwr=0
 EX
   Rdst=03 Rdst_Data=00000000 RegA_Data=00000000 RegB_DATA=00000000 ALU_OUT=00000000 halt=0 regwr=0 
   Branch Predictor pc=00000010 target addr=00000010 pc_sel=0 isnew=0 doBranch=0 funct3=0 opcode=33
 Forwarding
   RegA_ID_name=01 RegA_VAL_ID=xxxxxxxx RegB_ID_name=08 RegB_VAL_ID =00000000
    EX RDest=03 RDest_VAL=00000000 Reg_WR_EN=0 opcode=33
    MEM RDest=00 RDest_VAL=xxxxxxxx Reg_WR_EN=1 opcode=23 
 Forwarding out:
   regA=xxxxxxxx regB=00000000
 MEM
   ALUresult_in=xxxxxxxx RegBData=00000000 M[xxxxxxxx] val put in: 00000000 val gotten out: xxxxxxxx memwr=x
   Rdst=00 rdst_val=xxxxxxxx halt=x regwr=1 opcode=23
 WB
   regwr=0 

                  70 PC=0000001c pcsel=0 pc.target addr pc=0000001c pc+4=00000020 targetpc=00000020
 IR=00522023 halt=x exit=0 IF_ID_Stall=0 
 ID
   RegA=00 RegA Val=00000000 RegB=01 RegB Val=xxxxxxxx Rdst=05 halt=0 regwr=0
   controlunit regwr=0
 EX
   Rdst=04 Rdst_Data=xxxxxxxx RegA_Data=xxxxxxxx RegB_DATA=00000000 ALU_OUT=xxxxxxxx halt=0 regwr=0 
   Branch Predictor pc=00000014 target addr=0000001c pc_sel=0 isnew=0 doBranch=0 funct3=0 opcode=13
 Forwarding
   RegA_ID_name=00 RegA_VAL_ID=00000000 RegB_ID_name=01 RegB_VAL_ID =xxxxxxxx
    EX RDest=04 RDest_VAL=xxxxxxxx Reg_WR_EN=0 opcode=13
    MEM RDest=03 RDest_VAL=00000000 Reg_WR_EN=0 opcode=33 
 Forwarding out:
   regA=00000000 regB=xxxxxxxx
 MEM
   ALUresult_in=00000000 RegBData=00000000 M[00000000] val put in: 00000000 val gotten out: 07000093 memwr=1
   Rdst=03 rdst_val=00000000 halt=0 regwr=0 opcode=33
 WB
   regwr=1 

                  80 PC=00000020 pcsel=0 pc.target addr pc=00000019 pc+4=00000024 targetpc=00000024
 IR=000002b3 halt=0 exit=0 IF_ID_Stall=0 
 ID
   RegA=04 RegA Val=00000000 RegB=05 RegB Val=00000000 Rdst=00 halt=0 regwr=1
   controlunit regwr=1
 EX
   Rdst=05 Rdst_Data=00000001 RegA_Data=00000000 RegB_DATA=xxxxxxxx ALU_OUT=00000001 halt=0 regwr=0 
   Branch Predictor pc=00000018 target addr=00000019 pc_sel=0 isnew=0 doBranch=0 funct3=0 opcode=13
 Forwarding
   RegA_ID_name=04 RegA_VAL_ID=00000000 RegB_ID_name=05 RegB_VAL_ID =00000000
    EX RDest=05 RDest_VAL=00000001 Reg_WR_EN=0 opcode=13
    MEM RDest=04 RDest_VAL=xxxxxxxx Reg_WR_EN=0 opcode=13 
 Forwarding out:
   regA=xxxxxxxx regB=00000001
 MEM
   ALUresult_in=xxxxxxxx RegBData=00000000 M[xxxxxxxx] val put in: 00000000 val gotten out: xxxxxxxx memwr=1
   Rdst=04 rdst_val=xxxxxxxx halt=0 regwr=0 opcode=13
 WB
   regwr=0 

                  90 PC=00000024 pcsel=0 pc.target addr pc=0000001c pc+4=00000028 targetpc=00000028
 IR=00c08313 halt=0 exit=0 IF_ID_Stall=0 
 ID
   RegA=00 RegA Val=00000000 RegB=00 RegB Val=00000000 Rdst=05 halt=0 regwr=0
   controlunit regwr=0
 EX
   Rdst=00 Rdst_Data=xxxxxxxx RegA_Data=xxxxxxxx RegB_DATA=00000001 ALU_OUT=xxxxxxxx halt=0 regwr=1 
   Branch Predictor pc=0000001c target addr=0000001c pc_sel=0 isnew=0 doBranch=0 funct3=2 opcode=23
 Forwarding
   RegA_ID_name=00 RegA_VAL_ID=00000000 RegB_ID_name=00 RegB_VAL_ID =00000000
    EX RDest=00 RDest_VAL=xxxxxxxx Reg_WR_EN=1 opcode=23
    MEM RDest=05 RDest_VAL=00000001 Reg_WR_EN=0 opcode=13 
 Forwarding out:
   regA=00000000 regB=00000000
 MEM
   ALUresult_in=00000001 RegBData=xxxxxxxx M[00000001] val put in: xxxxxxxx val gotten out: 07000093 memwr=1
   Rdst=05 rdst_val=00000001 halt=0 regwr=0 opcode=13
 WB
   regwr=0 

                 100 PC=00000028 pcsel=0 pc.target addr pc=00000020 pc+4=0000002c targetpc=0000002c
 IR=00a00513 halt=0 exit=0 IF_ID_Stall=0 
 ID
   RegA=01 RegA Val=xxxxxxxx RegB=0c RegB Val=00000000 Rdst=06 halt=0 regwr=0
   controlunit regwr=0
 EX
   Rdst=05 Rdst_Data=00000000 RegA_Data=00000000 RegB_DATA=00000000 ALU_OUT=00000000 halt=0 regwr=0 
   Branch Predictor pc=00000020 target addr=00000020 pc_sel=0 isnew=0 doBranch=0 funct3=0 opcode=33
 Forwarding
   RegA_ID_name=01 RegA_VAL_ID=xxxxxxxx RegB_ID_name=0c RegB_VAL_ID =00000000
    EX RDest=05 RDest_VAL=00000000 Reg_WR_EN=0 opcode=33
    MEM RDest=00 RDest_VAL=xxxxxxxx Reg_WR_EN=1 opcode=23 
 Forwarding out:
   regA=xxxxxxxx regB=00000000
 MEM
   ALUresult_in=xxxxxxxx RegBData=00000001 M[xxxxxxxx] val put in: 00000001 val gotten out: xxxxxxxx memwr=x
   Rdst=00 rdst_val=xxxxxxxx halt=x regwr=1 opcode=23
 WB
   regwr=0 

                 110 PC=0000002c pcsel=0 pc.target addr pc=00000030 pc+4=00000030 targetpc=00000030
 IR=0240006f halt=x exit=0 IF_ID_Stall=0 
 ID
   RegA=00 RegA Val=00000000 RegB=0a RegB Val=00000000 Rdst=0a halt=0 regwr=0
   controlunit regwr=0
 EX
   Rdst=06 Rdst_Data=xxxxxxxx RegA_Data=xxxxxxxx RegB_DATA=00000000 ALU_OUT=xxxxxxxx halt=0 regwr=0 
   Branch Predictor pc=00000024 target addr=00000030 pc_sel=0 isnew=0 doBranch=0 funct3=0 opcode=13
 Forwarding
   RegA_ID_name=00 RegA_VAL_ID=00000000 RegB_ID_name=0a RegB_VAL_ID =00000000
    EX RDest=06 RDest_VAL=xxxxxxxx Reg_WR_EN=0 opcode=13
    MEM RDest=05 RDest_VAL=00000000 Reg_WR_EN=0 opcode=33 
 Forwarding out:
   regA=00000000 regB=00000000
 MEM
   ALUresult_in=00000000 RegBData=00000000 M[00000000] val put in: 00000000 val gotten out: 07000093 memwr=1
   Rdst=05 rdst_val=00000000 halt=0 regwr=0 opcode=33
 WB
   regwr=1 

                 120 PC=00000030 pcsel=0 pc.target addr pc=00000032 pc+4=00000034 targetpc=00000034
 IR=00012183 halt=0 exit=0 IF_ID_Stall=0 
 ID
   RegA=00 RegA Val=00000000 RegB=04 RegB Val=xxxxxxxx Rdst=00 halt=0 regwr=0
   controlunit regwr=0
 EX
   Rdst=0a Rdst_Data=0000000a RegA_Data=00000000 RegB_DATA=00000000 ALU_OUT=0000000a halt=0 regwr=0 
   Branch Predictor pc=00000028 target addr=00000032 pc_sel=0 isnew=0 doBranch=0 funct3=0 opcode=13
 Forwarding
   RegA_ID_name=00 RegA_VAL_ID=00000000 RegB_ID_name=04 RegB_VAL_ID =xxxxxxxx
    EX RDest=0a RDest_VAL=0000000a Reg_WR_EN=0 opcode=13
    MEM RDest=06 RDest_VAL=xxxxxxxx Reg_WR_EN=0 opcode=13 
 Forwarding out:
   regA=00000000 regB=xxxxxxxx
 MEM
   ALUresult_in=xxxxxxxx RegBData=00000000 M[xxxxxxxx] val put in: 00000000 val gotten out: xxxxxxxx memwr=1
   Rdst=06 rdst_val=xxxxxxxx halt=0 regwr=0 opcode=13
 WB
   regwr=0 

                 130 PC=00000034 pcsel=1 pc.target addr pc=00000050 pc+4=00000038 targetpc=00000050
 IR=00022283 halt=0 exit=0 IF_ID_Stall=0 
 ID
   RegA=02 RegA Val=xxxxxxxx RegB=00 RegB Val=00000000 Rdst=03 halt=0 regwr=0
   controlunit regwr=0
 EX
   Rdst=00 Rdst_Data=00000030 RegA_Data=00000000 RegB_DATA=xxxxxxxx ALU_OUT=00000050 halt=0 regwr=0 
   Branch Predictor pc=0000002c target addr=00000050 pc_sel=1 isnew=0 doBranch=1 funct3=0 opcode=6f
 Forwarding
   RegA_ID_name=02 RegA_VAL_ID=xxxxxxxx RegB_ID_name=00 RegB_VAL_ID =00000000
    EX RDest=00 RDest_VAL=00000030 Reg_WR_EN=0 opcode=6f
    MEM RDest=0a RDest_VAL=0000000a Reg_WR_EN=0 opcode=13 
 Forwarding out:
   regA=xxxxxxxx regB=00000000
 MEM
   ALUresult_in=0000000a RegBData=00000000 M[0000000a] val put in: 00000000 val gotten out: 00000193 memwr=1
   Rdst=0a rdst_val=0000000a halt=0 regwr=0 opcode=13
 WB
   regwr=0 

                 140 PC=00000050 pcsel=0 pc.target addr pc=00000030 pc+4=00000054 targetpc=00000054
 IR=fe0510e3 halt=0 exit=0 IF_ID_Stall=0 
 ID
   RegA=00 RegA Val=00000000 RegB=00 RegB Val=00000000 Rdst=00 halt=0 regwr=0
   controlunit regwr=0
 EX
   Rdst=00 Rdst_Data=00000000 RegA_Data=00000000 RegB_DATA=00000000 ALU_OUT=00000000 halt=0 regwr=1 
   Branch Predictor pc=00000030 target addr=00000030 pc_sel=0 isnew=0 doBranch=0 funct3=0 opcode=13
 Forwarding
   RegA_ID_name=00 RegA_VAL_ID=00000000 RegB_ID_name=00 RegB_VAL_ID =00000000
    EX RDest=00 RDest_VAL=00000000 Reg_WR_EN=1 opcode=13
    MEM RDest=00 RDest_VAL=00000030 Reg_WR_EN=0 opcode=6f 
 Forwarding out:
   regA=00000000 regB=00000000
 MEM
   ALUresult_in=00000050 RegBData=xxxxxxxx M[00000050] val put in: xxxxxxxx val gotten out: fe0510e3 memwr=1
   Rdst=00 rdst_val=00000030 halt=0 regwr=0 opcode=6f
 WB
   regwr=0 

                 150 PC=00000054 pcsel=0 pc.target addr pc=00000034 pc+4=00000058 targetpc=00000058
 IR=00000000 halt=0 exit=0 IF_ID_Stall=0 
 ID
   RegA=0a RegA Val=0000000a RegB=00 RegB Val=00000000 Rdst=01 halt=0 regwr=1
   controlunit regwr=1
 EX
   Rdst=00 Rdst_Data=00000000 RegA_Data=00000000 RegB_DATA=00000000 ALU_OUT=00000000 halt=0 regwr=0 
   Branch Predictor pc=00000034 target addr=00000034 pc_sel=0 isnew=0 doBranch=0 funct3=0 opcode=13
 Forwarding
   RegA_ID_name=0a RegA_VAL_ID=0000000a RegB_ID_name=00 RegB_VAL_ID =00000000
    EX RDest=00 RDest_VAL=00000000 Reg_WR_EN=0 opcode=13
    MEM RDest=00 RDest_VAL=00000000 Reg_WR_EN=1 opcode=13 
 Forwarding out:
   regA=0000000a regB=00000000
 MEM
   ALUresult_in=00000000 RegBData=00000000 M[00000000] val put in: 00000000 val gotten out: 07000093 memwr=1
   Rdst=00 rdst_val=00000000 halt=0 regwr=1 opcode=13
 WB
   regwr=0 

                 160 PC=00000058 pcsel=1 pc.target addr pc=00000030 pc+4=0000005c targetpc=00000030
 IR=00000000 halt=0 exit=0 IF_ID_Stall=0 
 ID
   RegA=00 RegA Val=00000000 RegB=00 RegB Val=00000000 Rdst=00 halt=1 regwr=1
   controlunit regwr=1
 EX
   Rdst=01 Rdst_Data=xxxxxxxX RegA_Data=0000000a RegB_DATA=00000000 ALU_OUT=00000030 halt=0 regwr=1 
   Branch Predictor pc=00000050 target addr=00000030 pc_sel=1 isnew=0 doBranch=1 funct3=1 opcode=63
 Forwarding
   RegA_ID_name=00 RegA_VAL_ID=00000000 RegB_ID_name=00 RegB_VAL_ID =00000000
    EX RDest=01 RDest_VAL=xxxxxxxX Reg_WR_EN=1 opcode=63
    MEM RDest=00 RDest_VAL=00000000 Reg_WR_EN=0 opcode=13 
 Forwarding out:
   regA=00000000 regB=00000000
 MEM
   ALUresult_in=00000000 RegBData=00000000 M[00000000] val put in: 00000000 val gotten out: 07000093 memwr=1
   Rdst=00 rdst_val=00000000 halt=0 regwr=0 opcode=13
 WB
   regwr=1 

                 170 PC=00000030 pcsel=0 pc.target addr pc=00000054 pc+4=00000034 targetpc=00000034
 IR=00012183 halt=0 exit=0 IF_ID_Stall=0 
 ID
   RegA=00 RegA Val=00000000 RegB=00 RegB Val=00000000 Rdst=00 halt=0 regwr=0
   controlunit regwr=0
 EX
   Rdst=00 Rdst_Data=00000000 RegA_Data=00000000 RegB_DATA=00000000 ALU_OUT=00000000 halt=0 regwr=1 
   Branch Predictor pc=00000054 target addr=00000054 pc_sel=0 isnew=0 doBranch=0 funct3=0 opcode=13
 Forwarding
   RegA_ID_name=00 RegA_VAL_ID=00000000 RegB_ID_name=00 RegB_VAL_ID =00000000
    EX RDest=00 RDest_VAL=00000000 Reg_WR_EN=1 opcode=13
    MEM RDest=01 RDest_VAL=xxxxxxxX Reg_WR_EN=1 opcode=63 
 Forwarding out:
   regA=00000000 regB=00000000
 MEM
   ALUresult_in=00000030 RegBData=00000000 M[00000030] val put in: 00000000 val gotten out: 00012183 memwr=1
   Rdst=01 rdst_val=xxxxxxxX halt=0 regwr=1 opcode=63
 WB
   regwr=0 

                 180 PC=00000034 pcsel=0 pc.target addr pc=00000058 pc+4=00000038 targetpc=00000038
 IR=00022283 halt=0 exit=0 IF_ID_Stall=0 
 ID
   RegA=02 RegA Val=xxxxxxxx RegB=00 RegB Val=00000000 Rdst=03 halt=0 regwr=0
   controlunit regwr=0
 EX
   Rdst=00 Rdst_Data=00000000 RegA_Data=00000000 RegB_DATA=00000000 ALU_OUT=00000000 halt=0 regwr=0 
   Branch Predictor pc=00000058 target addr=00000058 pc_sel=0 isnew=0 doBranch=0 funct3=0 opcode=13
 Forwarding
   RegA_ID_name=02 RegA_VAL_ID=xxxxxxxx RegB_ID_name=00 RegB_VAL_ID =00000000
    EX RDest=00 RDest_VAL=00000000 Reg_WR_EN=0 opcode=13
    MEM RDest=00 RDest_VAL=00000000 Reg_WR_EN=1 opcode=13 
 Forwarding out:
   regA=xxxxxxxx regB=00000000
 MEM
   ALUresult_in=00000000 RegBData=00000000 M[00000000] val put in: 00000000 val gotten out: 07000093 memwr=1
   Rdst=00 rdst_val=00000000 halt=0 regwr=1 opcode=13
 WB
   regwr=1 

                 190 PC=00000038 pcsel=0 pc.target addr pc=00000030 pc+4=0000003c targetpc=0000003c
 IR=003283b3 halt=0 exit=0 IF_ID_Stall=0 
 ID
   RegA=04 RegA Val=xxxxxxxx RegB=00 RegB Val=00000000 Rdst=05 halt=0 regwr=0
   controlunit regwr=0
 EX
   Rdst=03 Rdst_Data=00000000 RegA_Data=xxxxxxxx RegB_DATA=00000000 ALU_OUT=xxxxxxxx halt=0 regwr=0 
   Branch Predictor pc=00000030 target addr=00000030 pc_sel=0 isnew=0 doBranch=0 funct3=2 opcode=03
 Forwarding
   RegA_ID_name=04 RegA_VAL_ID=xxxxxxxx RegB_ID_name=00 RegB_VAL_ID =00000000
    EX RDest=03 RDest_VAL=00000000 Reg_WR_EN=0 opcode=03
    MEM RDest=00 RDest_VAL=00000000 Reg_WR_EN=0 opcode=13 
 Forwarding out:
   regA=xxxxxxxx regB=00000000
 MEM
   ALUresult_in=00000000 RegBData=00000000 M[00000000] val put in: 00000000 val gotten out: 07000093 memwr=1
   Rdst=00 rdst_val=00000000 halt=0 regwr=0 opcode=13
 WB
   regwr=1 

                 200 PC=0000003c pcsel=0 pc.target addr pc=00000034 pc+4=00000040 targetpc=00000040
 IR=00732023 halt=0 exit=0 IF_ID_Stall=1 
 ID
   RegA=05 RegA Val=00000000 RegB=03 RegB Val=00000000 Rdst=07 halt=0 regwr=0
   controlunit regwr=0
 EX
   Rdst=05 Rdst_Data=00000000 RegA_Data=xxxxxxxx RegB_DATA=00000000 ALU_OUT=xxxxxxxx halt=0 regwr=0 
   Branch Predictor pc=00000034 target addr=00000034 pc_sel=0 isnew=0 doBranch=0 funct3=2 opcode=03
 Forwarding
   RegA_ID_name=05 RegA_VAL_ID=00000000 RegB_ID_name=03 RegB_VAL_ID =00000000
    EX RDest=05 RDest_VAL=00000000 Reg_WR_EN=0 opcode=03
    MEM RDest=03 RDest_VAL=xxxxxxxx Reg_WR_EN=0 opcode=03 
 Forwarding out:
   regA=00000000 regB=xxxxxxxx
 MEM
   ALUresult_in=xxxxxxxx RegBData=00000000 M[xxxxxxxx] val put in: 00000000 val gotten out: xxxxxxxx memwr=1
   Rdst=03 rdst_val=xxxxxxxx halt=x regwr=0 opcode=03
 WB
   regwr=0 

                 210 PC=0000003c pcsel=0 pc.target addr pc=00000038 pc+4=00000040 targetpc=00000040
 IR=00732023 halt=x exit=0 IF_ID_Stall=0 
 ID
   RegA=05 RegA Val=00000000 RegB=03 RegB Val=00000000 Rdst=07 halt=0 regwr=0
   controlunit regwr=0
 EX
   Rdst=00 Rdst_Data=00000000 RegA_Data=00000000 RegB_DATA=00000000 ALU_OUT=00000000 halt=0 regwr=1 
   Branch Predictor pc=00000038 target addr=00000038 pc_sel=0 isnew=0 doBranch=0 funct3=0 opcode=13
 Forwarding
   RegA_ID_name=05 RegA_VAL_ID=00000000 RegB_ID_name=03 RegB_VAL_ID =00000000
    EX RDest=00 RDest_VAL=00000000 Reg_WR_EN=1 opcode=13
    MEM RDest=05 RDest_VAL=xxxxxxxx Reg_WR_EN=0 opcode=03 
 Forwarding out:
   regA=xxxxxxxx regB=00000000
 MEM
   ALUresult_in=xxxxxxxx RegBData=00000000 M[xxxxxxxx] val put in: 00000000 val gotten out: xxxxxxxx memwr=1
   Rdst=05 rdst_val=xxxxxxxx halt=x regwr=0 opcode=03
 WB
   regwr=0 

                 215 PC=0000003c pcsel=0 pc.target addr pc=00000038 pc+4=00000040 targetpc=00000040
 IR=00732023 halt=x exit=0 IF_ID_Stall=0 
 ID
   RegA=05 RegA Val=00000000 RegB=03 RegB Val=xxxxxxxx Rdst=07 halt=0 regwr=0
   controlunit regwr=0
 EX
   Rdst=00 Rdst_Data=00000000 RegA_Data=00000000 RegB_DATA=00000000 ALU_OUT=00000000 halt=0 regwr=1 
   Branch Predictor pc=00000038 target addr=00000038 pc_sel=0 isnew=0 doBranch=0 funct3=0 opcode=13
 Forwarding
   RegA_ID_name=05 RegA_VAL_ID=00000000 RegB_ID_name=03 RegB_VAL_ID =xxxxxxxx
    EX RDest=00 RDest_VAL=00000000 Reg_WR_EN=1 opcode=13
    MEM RDest=05 RDest_VAL=xxxxxxxx Reg_WR_EN=0 opcode=03 
 Forwarding out:
   regA=xxxxxxxx regB=xxxxxxxx
 MEM
   ALUresult_in=xxxxxxxx RegBData=00000000 M[xxxxxxxx] val put in: 00000000 val gotten out: xxxxxxxx memwr=1
   Rdst=05 rdst_val=xxxxxxxx halt=x regwr=0 opcode=03
 WB
   regwr=0 

                 220 PC=00000040 pcsel=0 pc.target addr pc=00000038 pc+4=00000044 targetpc=00000044
 IR=00020133 halt=x exit=0 IF_ID_Stall=0 
 ID
   RegA=06 RegA Val=xxxxxxxx RegB=07 RegB Val=00000000 Rdst=00 halt=0 regwr=1
   controlunit regwr=1
 EX
   Rdst=07 Rdst_Data=xxxxxxxx RegA_Data=xxxxxxxx RegB_DATA=xxxxxxxx ALU_OUT=xxxxxxxx halt=0 regwr=0 
   Branch Predictor pc=00000038 target addr=00000038 pc_sel=0 isnew=0 doBranch=0 funct3=0 opcode=33
 Forwarding
   RegA_ID_name=06 RegA_VAL_ID=xxxxxxxx RegB_ID_name=07 RegB_VAL_ID =00000000
    EX RDest=07 RDest_VAL=xxxxxxxx Reg_WR_EN=0 opcode=33
    MEM RDest=00 RDest_VAL=00000000 Reg_WR_EN=1 opcode=13 
 Forwarding out:
   regA=xxxxxxxx regB=xxxxxxxx
 MEM
   ALUresult_in=00000000 RegBData=00000000 M[00000000] val put in: 00000000 val gotten out: 07000093 memwr=1
   Rdst=00 rdst_val=00000000 halt=0 regwr=1 opcode=13
 WB
   regwr=0 

                 230 PC=00000044 pcsel=0 pc.target addr pc=0000003c pc+4=00000048 targetpc=00000048
 IR=00030233 halt=0 exit=0 IF_ID_Stall=0 
 ID
   RegA=04 RegA Val=xxxxxxxx RegB=00 RegB Val=00000000 Rdst=02 halt=0 regwr=0
   controlunit regwr=0
 EX
   Rdst=00 Rdst_Data=xxxxxxxx RegA_Data=xxxxxxxx RegB_DATA=xxxxxxxx ALU_OUT=xxxxxxxx halt=0 regwr=1 
   Branch Predictor pc=0000003c target addr=0000003c pc_sel=0 isnew=0 doBranch=0 funct3=2 opcode=23
 Forwarding
   RegA_ID_name=04 RegA_VAL_ID=xxxxxxxx RegB_ID_name=00 RegB_VAL_ID =00000000
    EX RDest=00 RDest_VAL=xxxxxxxx Reg_WR_EN=1 opcode=23
    MEM RDest=07 RDest_VAL=xxxxxxxx Reg_WR_EN=0 opcode=33 
 Forwarding out:
   regA=xxxxxxxx regB=00000000
 MEM
   ALUresult_in=xxxxxxxx RegBData=xxxxxxxx M[xxxxxxxx] val put in: xxxxxxxx val gotten out: xxxxxxxx memwr=1
   Rdst=07 rdst_val=xxxxxxxx halt=0 regwr=0 opcode=33
 WB
   regwr=1 

                 240 PC=00000048 pcsel=0 pc.target addr pc=00000040 pc+4=0000004c targetpc=0000004c
 IR=00430313 halt=0 exit=0 IF_ID_Stall=0 
 ID
   RegA=06 RegA Val=xxxxxxxx RegB=00 RegB Val=00000000 Rdst=04 halt=0 regwr=0
   controlunit regwr=0
 EX
   Rdst=02 Rdst_Data=xxxxxxxx RegA_Data=xxxxxxxx RegB_DATA=00000000 ALU_OUT=xxxxxxxx halt=0 regwr=0 
   Branch Predictor pc=00000040 target addr=00000040 pc_sel=0 isnew=0 doBranch=0 funct3=0 opcode=33
 Forwarding
   RegA_ID_name=06 RegA_VAL_ID=xxxxxxxx RegB_ID_name=00 RegB_VAL_ID =00000000
    EX RDest=02 RDest_VAL=xxxxxxxx Reg_WR_EN=0 opcode=33
    MEM RDest=00 RDest_VAL=xxxxxxxx Reg_WR_EN=1 opcode=23 
 Forwarding out:
   regA=xxxxxxxx regB=00000000
 MEM
   ALUresult_in=xxxxxxxx RegBData=xxxxxxxx M[xxxxxxxx] val put in: xxxxxxxx val gotten out: xxxxxxxx memwr=x
   Rdst=00 rdst_val=xxxxxxxx halt=x regwr=1 opcode=23
 WB
   regwr=0 

                 250 PC=0000004c pcsel=0 pc.target addr pc=00000044 pc+4=00000050 targetpc=00000050
